INDEX VERSION 1.130+/Users/jamesgould/Documents/Bitbucket/GlobalRadioTechTest/.metadata/.plugins/org.eclipse.jdt.core
1225233107.index
4238018145.index
3767115374.index
3417688010.index
2131238922.index
4100559596.index
291350285.index
4033543622.index
920266162.index
2363563081.index
3618667078.index
4111942866.index
2649817285.index
159815703.index
3131291862.index
2997087281.index
404199878.index
1008136169.index
4071564814.index
2908740364.index
3735975305.index
521061135.index
1753319412.index
2282008301.index
2867016645.index
557288491.index
2882931793.index
3670248649.index
227660429.index
2057223112.index
4036230714.index
1626288108.index
306033394.index
3483536720.index
506999199.index
3681440288.index
2634225966.index
3550949596.index
1739359627.index
3663173922.index
1827995891.index
1067258947.index
1839998104.index
607582859.index
4051348762.index
1501137380.index
987772536.index
247381976.index
2992847744.index
332286616.index
563979786.index
1315525803.index
939631987.index
544033654.index
1969767409.index
4220904052.index
1778452381.index
2561845512.index
3139863718.index
1271342938.index
1694000502.index
3931793991.index
2948679371.index
3329715938.index
3456025300.index
3401159480.index
1846955271.index
2089348824.index
